\relax 
\providecommand\hyper@newdestlabel[2]{}
\providecommand{\transparent@use}[1]{}
\providecommand\zref@newlabel[2]{}
\providecommand\HyperFirstAtBeginDocument{\AtBeginDocument}
\HyperFirstAtBeginDocument{\ifx\hyper@anchor\@undefined
\global\let\oldcontentsline\contentsline
\gdef\contentsline#1#2#3#4{\oldcontentsline{#1}{#2}{#3}}
\global\let\oldnewlabel\newlabel
\gdef\newlabel#1#2{\newlabelxx{#1}#2}
\gdef\newlabelxx#1#2#3#4#5#6{\oldnewlabel{#1}{{#2}{#3}}}
\AtEndDocument{\ifx\hyper@anchor\@undefined
\let\contentsline\oldcontentsline
\let\newlabel\oldnewlabel
\fi}
\fi}
\global\let\hyper@last\relax 
\gdef\HyperFirstAtBeginDocument#1{#1}
\providecommand\HyField@AuxAddToFields[1]{}
\providecommand\HyField@AuxAddToCoFields[2]{}
\citation{Ves85}
\citation{Zel02}
\citation{Wong:2009qy}
\citation{Jones:2001vn}
\citation{WQZ07}
\citation{Dallmeier:2005fr}
\citation{Yoo:2012kx}
\citation{Naish:2011fk}
\citation{Xie:2013uq}
\citation{Xie:2013kx}
\citation{Parnin:2011uq}
\newlabel{FirstPage}{{}{1}{}{Doc-Start}{}}
\@writefile{toc}{\contentsline {section}{\numberline {1}Introduction}{1}{section.1}}
\citation{budd81}
\citation{Budd:1980qy}
\citation{Renieres:2003uq}
\citation{Qi:2013fk}
\citation{Naish:2011fk}
\citation{Qi:2013fk}
\citation{Jaccard:1901uq}
\citation{AZG06}
\citation{Naish:2011fk}
\citation{Jaccard:1901uq}
\citation{AZG06}
\citation{Naish:2011fk}
\@writefile{toc}{\contentsline {section}{\numberline {2}Spectrum-Based Fault Localization}{3}{section.2}}
\newlabel{sec:sbfl-background}{{2}{3}{Spectrum-Based Fault Localization}{section.2}{}}
\newlabel{eqn:jaccard}{{1}{3}{Spectrum-Based Fault Localization}{equation.2.1}{}}
\newlabel{eqn:ochiai}{{2}{3}{Spectrum-Based Fault Localization}{equation.2.2}{}}
\newlabel{eqn:op2}{{3}{3}{Spectrum-Based Fault Localization}{equation.2.3}{}}
\@writefile{toc}{\contentsline {section}{\numberline {3}Hybrid Mutation-based Fault Localization Technique}{3}{section.3}}
\newlabel{sec:muse}{{3}{3}{Hybrid Mutation-based Fault Localization Technique}{section.3}{}}
\@writefile{toc}{\contentsline {subsection}{\numberline {3.1}Intuitions of Mutation-based Fault Localization Technique}{3}{subsection.3.1}}
\newlabel{sec:muse-idea}{{3.1}{3}{Intuitions of Mutation-based Fault Localization Technique}{subsection.3.1}{}}
\@writefile{toc}{\contentsline {subsection}{\numberline {3.2}Suspiciousness Metric of MUSE\xspace  }{4}{subsection.3.2}}
\newlabel{sec:muse-metric}{{3.2}{4}{Suspiciousness Metric of \muse }{subsection.3.2}{}}
\newlabel{eqn:mu}{{4}{4}{Suspiciousness Metric of \muse }{equation.3.4}{}}
\citation{Qi:2013fk}
\@writefile{toc}{\contentsline {subsection}{\numberline {3.3}Suspiciousness Metric of Hybrid-MUSE\xspace  }{5}{subsection.3.3}}
\newlabel{sec:muse-metric}{{3.3}{5}{Suspiciousness Metric of \hmuse }{subsection.3.3}{}}
\newlabel{eqn:muse}{{5}{5}{Suspiciousness Metric of \hmuse }{equation.3.5}{}}
\@writefile{toc}{\contentsline {subsection}{\numberline {3.4}An Working Example}{5}{subsection.3.4}}
\newlabel{sec:example}{{3.4}{5}{An Working Example}{subsection.3.4}{}}
\@writefile{lof}{\contentsline {figure}{\numberline {1}{\ignorespaces Example of how Hybrid-MUSE\xspace  localizes a fault compared with different fault localization techniques\relax }}{6}{figure.caption.1}}
\providecommand*\caption@xref[2]{\@setref\relax\@undefined{#1}}
\newlabel{fig:example}{{1}{6}{Example of how \hmuse localizes a fault compared with different fault localization techniques\relax }{figure.caption.1}{}}
\citation{ADH89}
\citation{Renieres:2003uq}
\citation{Jones:2005fk}
\citation{Naish:2011fk}
\citation{Yoo:2012kx}
\citation{Xie:2013kx}
\citation{Xie:2013uq}
\citation{Parnin:2011uq}
\citation{Qi:2013fk}
\citation{Weimer:2009fk}
\citation{Goues:2012zr}
\citation{Weimer:2009fk}
\citation{Qi:2013fk}
\citation{Jaccard:1901uq}
\citation{Naish:2011fk}
\citation{Xie:2013uq}
\@writefile{lof}{\contentsline {figure}{\numberline {2}{\ignorespaces Process of the mutation based fault localization of MUSE\xspace  \relax }}{7}{figure.caption.2}}
\newlabel{fig:architecture}{{2}{7}{Process of the mutation based fault localization of \muse \relax }{figure.caption.2}{}}
\@writefile{toc}{\contentsline {subsection}{\numberline {3.5}MUSE\xspace  Framework}{7}{subsection.3.5}}
\newlabel{sec:muse-framework}{{3.5}{7}{\muse Framework}{subsection.3.5}{}}
\@writefile{toc}{\contentsline {section}{\numberline {4}LIL: Locality Information Loss}{7}{section.4}}
\newlabel{sec:LIL}{{4}{7}{LIL: Locality Information Loss}{section.4}{}}
\citation{Yoo:2013uq}
\citation{Yoo:2013uq}
\citation{Kullback:1951lr}
\citation{Qi:2013fk}
\newlabel{eqn:normalization}{{7}{8}{LIL: Locality Information Loss}{equation.4.7}{}}
\citation{Renieres:2003uq}
\citation{Naish:2011fk}
\citation{Ochiai:1957fj}
\citation{Jaccard:1901uq}
\citation{Qi:2013fk}
\@writefile{toc}{\contentsline {section}{\numberline {5}Empirical Study I}{9}{section.5}}
\newlabel{sec:exp-setup}{{5}{9}{Empirical Study I}{section.5}{}}
\citation{DER05}
\citation{Maldonado:2001:PFT:571305.571329}
\citation{ADH89}
\citation{DER05}
\citation{WoDe09}
\citation{WQZ07}
\citation{Yoo12}
\citation{SJY09}
\citation{ZhangGG06}
\citation{JeffreyGG08}
\citation{Qi:2013fk}
\citation{Jones:2005fk}
\citation{Abreu:2007uq}
\citation{Qi:2013fk}
\citation{ADT10}
\citation{GZK12}
\citation{RFZ12}
\@writefile{lot}{\contentsline {table}{\numberline {I}{\ignorespaces Subject programs, \# of versions used, their average sizes in lines of code (LOC), and the average number of failing and passing test cases\relax }}{10}{table.caption.3}}
\newlabel{tbl:objects}{{I}{10}{Subject programs, \# of versions used, their average sizes in lines of code (LOC), and the average number of failing and passing test cases\relax }{table.caption.3}{}}
\@writefile{toc}{\contentsline {subsection}{\numberline {5.1}Subject Programs}{10}{subsection.5.1}}
\newlabel{sec:objects}{{5.1}{10}{Subject Programs}{subsection.5.1}{}}
\@writefile{toc}{\contentsline {subsection}{\numberline {5.2}Mutation and Fault Localization Setup}{10}{subsection.5.2}}
\newlabel{sec:setup}{{5.2}{10}{Mutation and Fault Localization Setup}{subsection.5.2}{}}
\@writefile{toc}{\contentsline {subsection}{\numberline {5.3}Threats to Validity}{10}{subsection.5.3}}
\newlabel{sec:threats}{{5.3}{10}{Threats to Validity}{subsection.5.3}{}}
\@writefile{lot}{\contentsline {table}{\numberline {II}{\ignorespaces The average numbers of target statements, average used mutants, and average dormant mutants (mutants that do not change any test results) per subject program\relax }}{11}{table.caption.4}}
\newlabel{tbl:mu_stat}{{II}{11}{The average numbers of target statements, average used mutants, and average dormant mutants (mutants that do not change any test results) per subject program\relax }{table.caption.4}{}}
\@writefile{lot}{\contentsline {table}{\numberline {III}{\ignorespaces The average numbers of the test cases whose results change on the mutants\relax }}{11}{table.caption.5}}
\newlabel{tbl:mutation}{{III}{11}{The average numbers of the test cases whose results change on the mutants\relax }{table.caption.5}{}}
\@writefile{toc}{\contentsline {section}{\numberline {6}Result of the Empirical Study I}{11}{section.6}}
\newlabel{sec:exp-result}{{6}{11}{Result of the Empirical Study I}{section.6}{}}
\@writefile{toc}{\contentsline {subsection}{\numberline {6.1}Result of the Mutation}{11}{subsection.6.1}}
\newlabel{sec:res-mutation}{{6.1}{11}{Result of the Mutation}{subsection.6.1}{}}
\@writefile{lot}{\contentsline {table}{\numberline {IV}{\ignorespaces Comparison of MUSE\xspace  and Hybrid-MUSE\xspace  \relax }}{12}{table.caption.6}}
\newlabel{tbl:rq2}{{IV}{12}{Comparison of \muse and \hmuse \relax }{table.caption.6}{}}
\@writefile{lot}{\contentsline {table}{\numberline {V}{\ignorespaces Average precisions of Jaccard, Ochiai, Op2 and Hybrid-MUSE\xspace  \relax }}{12}{table.caption.7}}
\newlabel{tbl:results}{{V}{12}{Average precisions of Jaccard, Ochiai, Op2 and \hmuse \relax }{table.caption.7}{}}
\@writefile{toc}{\contentsline {subsection}{\numberline {6.2}Regarding RQ1: Foundation of MUSE\xspace  }{12}{subsection.6.2}}
\newlabel{sec:rq1-result}{{6.2}{12}{Regarding RQ1: Foundation of \muse }{subsection.6.2}{}}
\@writefile{toc}{\contentsline {subsection}{\numberline {6.3}Regarding RQ2: Effectiveness of Hybrid-MUSE\xspace  SBFL\xspace  component}{12}{subsection.6.3}}
\newlabel{sec:rq2-result}{{6.3}{12}{Regarding RQ2: Effectiveness of \hmuse \sbfl component}{subsection.6.3}{}}
\citation{Parnin:2011uq}
\@writefile{toc}{\contentsline {subsection}{\numberline {6.4}Regarding RQ3: Precision in terms of the Expense metric}{13}{subsection.6.4}}
\newlabel{sec:rq3-result}{{6.4}{13}{Regarding RQ3: Precision in terms of the Expense metric}{subsection.6.4}{}}
\@writefile{toc}{\contentsline {subsection}{\numberline {6.5}Regarding RQ4: Precision in terms of the LIL metric}{13}{subsection.6.5}}
\newlabel{sec:rq4-result}{{6.5}{13}{Regarding RQ4: Precision in terms of the LIL metric}{subsection.6.5}{}}
\citation{Qi:2013fk}
\@writefile{lof}{\contentsline {figure}{\numberline {3}{\ignorespaces Distribution of normalized suspiciousness scores for \texttt  {space v21} in descending order\relax }}{14}{figure.caption.8}}
\newlabel{fig:dist-susp}{{3}{14}{Distribution of normalized suspiciousness scores for \texttt {space v21} in descending order\relax }{figure.caption.8}{}}
\@writefile{lof}{\contentsline {figure}{\numberline {4}{\ignorespaces Comparision of distributions of normalized suspiciousness score across target statements of \texttt  {space v21}\relax }}{14}{figure.caption.9}}
\newlabel{fig:dist_comparison}{{4}{14}{Comparision of distributions of normalized suspiciousness score across target statements of \texttt {space v21}\relax }{figure.caption.9}{}}
\@writefile{lot}{\contentsline {table}{\numberline {VI}{\ignorespaces Average precisions of Hybrid-MUSE\xspace  per mutant sampling rate\relax }}{15}{table.caption.10}}
\newlabel{tbl:sampling}{{VI}{15}{Average precisions of \hmuse per mutant sampling rate\relax }{table.caption.10}{}}
\@writefile{lot}{\contentsline {table}{\numberline {VII}{\ignorespaces PHP real-bugs used in the experiment\relax }}{15}{table.caption.11}}
\newlabel{tbl:php-target}{{VII}{15}{PHP real-bugs used in the experiment\relax }{table.caption.11}{}}
\@writefile{lot}{\contentsline {table}{\numberline {VIII}{\ignorespaces Average precisions of Jaccard, Ochiai, Op2, and Hybrid-MUSE\xspace  on PHP real-bugs\relax }}{15}{table.caption.12}}
\newlabel{tbl:php-precision}{{VIII}{15}{Average precisions of Jaccard, Ochiai, Op2, and \hmuse on PHP real-bugs\relax }{table.caption.12}{}}
\@writefile{toc}{\contentsline {subsection}{\numberline {6.6}Regarding RQ5: Relation between the precision and the number of mutants utilized}{15}{subsection.6.6}}
\newlabel{sec:rq5}{{6.6}{15}{Regarding RQ5: Relation between the precision and the number of mutants utilized}{subsection.6.6}{}}
\citation{GZK12}
\citation{RFZ12}
\citation{Jin:2013kx}
\citation{RFZ12}
\citation{Jin:2013kx}
\@writefile{toc}{\contentsline {section}{\numberline {7}Empirical Study II}{16}{section.7}}
\newlabel{sec:php}{{7}{16}{Empirical Study II}{section.7}{}}
\@writefile{toc}{\contentsline {section}{\numberline {8}Discussions}{16}{section.8}}
\newlabel{sec:discuss}{{8}{16}{Discussions}{section.8}{}}
\@writefile{toc}{\contentsline {subsection}{\numberline {8.1}Why does it work well?}{16}{subsection.8.1}}
\newlabel{sec:disc-precision}{{8.1}{16}{Why does it work well?}{subsection.8.1}{}}
\@writefile{toc}{\contentsline {subsection}{\numberline {8.2}Hybrid-MUSE\xspace  and Test Suite Balance}{16}{subsection.8.2}}
\newlabel{sec:unique}{{8.2}{16}{\hmuse and Test Suite Balance}{subsection.8.2}{}}
\citation{Qi:2013fk}
\citation{Claire:2013}
\citation{Qi:2013fk}
\citation{Qi:2013fk}
\citation{ClZe05}
\citation{Zel02}
\citation{BrEr04}
\citation{Wong:2009qy}
\citation{Ali12}
\citation{Jones:2001vn}
\citation{Ochiai:1957fj}
\citation{Jones:2005fk}
\citation{AZG06}
\citation{Xie:2013uq}
\citation{Dallmeier:2005fr}
\citation{SJY09}
\citation{Steimann:2013fk}
\citation{Parnin:2011uq}
\citation{BPH10}
\citation{BPH11}
\citation{JoMa11}
\citation{GZK12}
\citation{ClZe05}
\citation{ZhangGG06}
\citation{JeffreyGG08}
\citation{ChandraTBB11}
\citation{ZhangGG06}
\citation{JeffreyGG08}
\citation{ChandraTBB11}
\citation{ClZe05}
\@writefile{lot}{\contentsline {table}{\numberline {IX}{\ignorespaces Expense, LIL, and NCP scores on \texttt  {look utx 4.3} \relax }}{17}{table.caption.13}}
\newlabel{tbl:genprog-fl}{{IX}{17}{Expense, LIL, and NCP scores on \texttt {look utx 4.3} \relax }{table.caption.13}{}}
\@writefile{toc}{\contentsline {subsection}{\numberline {8.3}LIL Metric and Automated Bug Repair}{17}{subsection.8.3}}
\newlabel{sec:app-lil}{{8.3}{17}{LIL Metric and Automated Bug Repair}{subsection.8.3}{}}
\@writefile{toc}{\contentsline {section}{\numberline {9}Related Work}{17}{section.9}}
\newlabel{sec:related}{{9}{17}{Related Work}{section.9}{}}
\citation{Xie:2013uq}
\citation{Naish:2011fk}
\citation{Yoo:2012kx}
\citation{Xie:2013kx}
\citation{Papadakis:2012fk}
\citation{Zhang:2013fj}
\@writefile{toc}{\contentsline {section}{\numberline {10}Conclusion and Future Work}{18}{section.10}}
\newlabel{sec:conclusion}{{10}{18}{Conclusion and Future Work}{section.10}{}}
\bibstyle{unsrt}
\bibstyle{abbrv}
\bibdata{short-newref}
\bibcite{Ves85}{1}
\bibcite{Zel02}{2}
\bibcite{Wong:2009qy}{3}
\bibcite{Jones:2001vn}{4}
\bibcite{WQZ07}{5}
\bibcite{Dallmeier:2005fr}{6}
\bibcite{Yoo:2012kx}{7}
\bibcite{Naish:2011fk}{8}
\bibcite{Xie:2013uq}{9}
\bibcite{Xie:2013kx}{10}
\bibcite{Parnin:2011uq}{11}
\bibcite{budd81}{12}
\bibcite{Budd:1980qy}{13}
\bibcite{Renieres:2003uq}{14}
\bibcite{Qi:2013fk}{15}
\bibcite{Jaccard:1901uq}{16}
\bibcite{AZG06}{17}
\bibcite{ADH89}{18}
\bibcite{Jones:2005fk}{19}
\bibcite{Weimer:2009fk}{20}
\bibcite{Goues:2012zr}{21}
\bibcite{Yoo:2013uq}{22}
\bibcite{Kullback:1951lr}{23}
\bibcite{Ochiai:1957fj}{24}
\bibcite{DER05}{25}
\bibcite{Maldonado:2001:PFT:571305.571329}{26}
\bibcite{WoDe09}{27}
\bibcite{Yoo12}{28}
\bibcite{SJY09}{29}
\bibcite{ZhangGG06}{30}
\bibcite{JeffreyGG08}{31}
\bibcite{Abreu:2007uq}{32}
\bibcite{ADT10}{33}
\bibcite{GZK12}{34}
\bibcite{RFZ12}{35}
\bibcite{Jin:2013kx}{36}
\bibcite{Claire:2013}{37}
\bibcite{ClZe05}{38}
\bibcite{BrEr04}{39}
\bibcite{Ali12}{40}
\bibcite{Steimann:2013fk}{41}
\bibcite{BPH10}{42}
\bibcite{BPH11}{43}
\bibcite{JoMa11}{44}
\bibcite{ChandraTBB11}{45}
\bibcite{Papadakis:2012fk}{46}
\bibcite{Zhang:2013fj}{47}
\newlabel{LastPage}{{10}{20}{Conclusion and Future Work}{section.10}{}}
\ulp@afterend
